{
    "swagger": "2.0",
    "info": {
        "description": "This is a service for registering user requests for the purchase of product.",
        "title": "Registry API",
        "contact": {}
    },
    "paths": {
        "/history": {
            "get": {
                "description": "History of product purchase requests",
                "consumes": [
                    "application/json"
                ],
                "produces": [
                    "application/json"
                ],
                "tags": [
                    "History"
                ],
                "summary": "History",
                "parameters": [
                    {
                        "type": "string",
                        "description": "User ID",
                        "name": "user_id",
                        "in": "query",
                        "required": true
                    },
                    {
                        "type": "string",
                        "default": "1",
                        "description": "Page",
                        "name": "page",
                        "in": "query",
                        "required": true
                    },
                    {
                        "type": "string",
                        "default": "10",
                        "description": "Limit",
                        "name": "limit",
                        "in": "query",
                        "required": true
                    }
                ],
                "responses": {
                    "200": {
                        "description": "OK"
                    },
                    "422": {
                        "description": "Incorrect redirect uri"
                    },
                    "500": {
                        "description": "Server Error"
                    }
                }
            }
        },
        "/purchase": {
            "post": {
                "description": "Product purchase request",
                "consumes": [
                    "application/json"
                ],
                "produces": [
                    "application/json"
                ],
                "tags": [
                    "Purchase"
                ],
                "summary": "Purchase",
                "parameters": [
                    {
                        "description": "Request",
                        "name": "request",
                        "in": "body",
                        "required": true,
                        "schema": {
                            "$ref": "#/definitions/server.Request"
                        }
                    }
                ],
                "responses": {
                    "200": {
                        "description": "OK"
                    },
                    "422": {
                        "description": "Validation error"
                    },
                    "500": {
                        "description": "Server Error"
                    }
                }
            }
        }
    },
    "definitions": {
        "server.Request": {
            "type": "object",
            "required": [
                "product",
                "user_id"
            ],
            "properties": {
                "product": {
                    "type": "string",
                    "example": "A"
                },
                "user_id": {
                    "type": "string",
                    "example": "51bf5c8a-0ec4-4221-bbf8-118e57db6d6c"
                }
            }
        }
    }
}